%  GPST                  latitude(deg) longitude(deg)  height(m)   Q  ns   sdn(m)   sde(m)   sdu(m)  sdne(m)  sdeu(m)  sdun(m) age(s)  ratio
 11:09:38.003   24.492775003  118.177193221    60.7692   2   4   0.8973   2.2814  10.5475  -0.6306  -4.7804   1.3593   2.00    1.0
 11:09:39.003   24.492775384  118.177193985    60.5167   2   4   0.6371   1.6190   7.4911  -0.4467  -3.3937   0.9633   3.00    1.1
 11:09:40.003   24.492775566  118.177194026    60.5203   2   4   0.5210   1.3232   6.1255  -0.3653  -2.7743   0.7881   4.00    1.5
 11:09:41.003   24.492775622  118.177193958    60.4792   2   4   0.4517   1.1464   5.3091  -0.3169  -2.4039   0.6838   5.00    1.4
 11:09:42.003   24.492775717  118.177194035    60.4254   2   4   0.4043   1.0255   4.7512  -0.2839  -2.1508   0.6128   6.00    1.5
 11:09:43.003   24.492775820  118.177193582    60.5619   2   4   0.3693   0.9362   4.3392  -0.2596  -1.9639   0.5606   7.00    1.4
 11:09:44.003   24.492775702  118.177194016    60.1245   2   4   0.3418   0.8662   4.0164  -0.2405  -1.8174   0.5195   0.00    2.3
 11:09:45.003   24.492775251  118.177195818    59.2276   1   4   0.0093   0.0249   0.1161  -0.0071  -0.0526   0.0153   1.00    7.0
 11:09:46.003   24.492775332  118.177195706    59.2312   1   4   0.0098   0.0263   0.1219  -0.0077  -0.0553   0.0167   2.00    5.9
 11:09:47.003   24.492775008  118.177194675    59.5025   2   4   0.2863   0.7242   3.3617  -0.2020  -1.5202   0.4369   3.00    2.6
 11:09:48.003   24.492774757  118.177194866    59.3463   2   4   0.2731   0.6904   3.2059  -0.1929  -1.4495   0.4174   4.00    1.3
 11:09:49.003   24.492775362  118.177191947    60.1094   2   4   0.4692   1.5453   5.0484  -0.7605  -2.7430   1.3120   5.00    1.1
 11:09:50.003   24.492777969  118.177177543    65.0745   2   5   0.2958   0.5594   2.0456  -0.2643  -0.9607   0.3601   6.00    1.2
 11:09:51.003   24.492777327  118.177176630    65.9298   1   5   0.0151   0.0102   0.0519   0.0031  -0.0133  -0.0049   7.00    4.5
 11:09:52.003   24.492777363  118.177176559    65.9299   1   5   0.0165   0.0111   0.0567   0.0034  -0.0144  -0.0051   8.00   20.4
 11:09:53.003   24.492777286  118.177176531    65.9145   1   5   0.0088   0.0063   0.0315   0.0020  -0.0089  -0.0036   0.00   11.3
 11:09:54.003   24.492777131  118.177175550    66.2385   2   5   0.2314   0.2710   1.1561  -0.1081  -0.4336  -0.0691   0.00    1.8
 11:09:55.003   24.492777025  118.177175316    66.3238   2   5   0.2230   0.2487   1.0789  -0.0952  -0.3937  -0.0844   1.00    1.2
 11:09:56.003   24.492776860  118.177175187    66.3108   2   6   0.2156   0.2303   0.9781  -0.0851  -0.3543  -0.0888   2.00    1.0
 11:09:57.003   24.492776654  118.177175085    66.2878   2   6   0.2090   0.2157   0.9016  -0.0769  -0.3247  -0.0903   3.00    1.2
 11:09:58.000   24.492776687  118.177174880    66.2744   2   6   0.2031   0.2037   0.8409  -0.0700  -0.3013  -0.0904   4.00    1.2
 11:09:59.000   24.492776545  118.177174791    66.2410   2   6   0.1977   0.1936   0.7910  -0.0640  -0.2823  -0.0897   5.00    1.0
 11:10:00.000   24.492772896  118.177182563    63.9647   2   6   0.1916   0.1793   0.7343  -0.0500  -0.2559  -0.1048   6.00    1.3
 11:10:01.000   24.492772819  118.177181637    64.0731   2   6   0.1868   0.1724   0.7001  -0.0461  -0.2437  -0.1014   0.00    1.1
 11:10:02.000   24.492772925  118.177180948    64.1616   2   6   0.1827   0.1663   0.6706  -0.0426  -0.2332  -0.0985   0.00    1.0
 11:10:03.000   24.492772960  118.177180429    64.2774   2   6   0.1788   0.1608   0.6445  -0.0395  -0.2239  -0.0958   1.00    1.0
 11:10:04.000   24.492773062  118.177179930    64.3416   2   6   0.1752   0.1558   0.6213  -0.0366  -0.2156  -0.0933   2.00    1.1
 11:10:05.000   24.492773139  118.177179450    64.4086   2   6   0.1718   0.1513   0.6005  -0.0340  -0.2082  -0.0910   3.00    1.1
 11:10:06.000   24.492773478  118.177178613    64.4708   2   6   0.1687   0.1473   0.5817  -0.0319  -0.2016  -0.0888   4.00    1.3
 11:10:07.000   24.492773456  118.177178689    64.4743   2   6   0.1657   0.1435   0.5647  -0.0295  -0.1956  -0.0866   5.00    1.2
 11:10:08.000   24.492773578  118.177178343    64.5127   2   6   0.1630   0.1400   0.5492  -0.0274  -0.1901  -0.0847   6.00    1.6
 11:10:09.000   24.492773313  118.177177631    65.1834   1   6   0.0151   0.0102   0.0393   0.0031  -0.0125  -0.0066   7.00    3.1
 11:10:10.000   24.492773686  118.177177690    64.5104   2   6   0.1573   0.1336   0.5208  -0.0239  -0.1800  -0.0810   0.00    1.9
 11:10:11.000   24.492772851  118.177175032    64.3532   2   6   0.1562   0.1306   0.5082  -0.0175  -0.1759  -0.0792   0.00    1.1
 11:10:12.000   24.492773043  118.177174870    64.3687   2   6   0.1533   0.1278   0.4966  -0.0179  -0.1718  -0.0774   1.00    1.3
 11:10:13.000   24.492773563  118.177174438    64.4969   2   8   0.1497   0.1249   0.4791  -0.0111  -0.1668  -0.0786   2.00    1.1
 11:10:14.000   24.492774066  118.177174055    64.5763   2   8   0.1466   0.1224   0.4636   0.0070  -0.1622  -0.0793   3.00    1.1
 11:10:15.000   24.492774518  118.177173762    64.6208   2   8   0.1437   0.1199   0.4495   0.0143  -0.1581  -0.0796   4.00    1.1
 11:10:16.000   24.492773592  118.177174149    65.6734   2   8   0.1407   0.1176   0.4316   0.0190  -0.1551  -0.0759   5.00    1.0
 11:10:17.000   24.492774041  118.177173886    65.6511   2   8   0.1382   0.1155   0.4204   0.0219  -0.1517  -0.0764   6.00    1.1
 11:10:18.000   24.492774315  118.177173537    65.6964   2   7   0.1358   0.1133   0.4109   0.0229  -0.1479  -0.0780   0.00    1.1
 11:10:19.000   24.492774774  118.177173305    65.6711   2   8   0.1335   0.1114   0.4010   0.0244  -0.1448  -0.0779   1.00    1.2
 11:10:20.000   24.492775214  118.177173092    65.6708   2   8   0.1316   0.1099   0.3920   0.0273  -0.1424  -0.0782   2.00    1.2
 11:10:21.000   24.492775521  118.177172792    65.6772   2   8   0.1294   0.1081   0.3835   0.0278  -0.1397  -0.0777   3.00    1.2
 11:10:22.000   24.492775957  118.177172561    65.6487   2   8   0.1275   0.1065   0.3756   0.0285  -0.1372  -0.0775   4.00    1.5
 11:10:23.000   24.492776254  118.177172396    65.6380   2   8   0.1256   0.1049   0.3682   0.0293  -0.1349  -0.0772   5.00    1.7
 11:10:24.000   24.492776625  118.177172178    65.6085   2   8   0.1239   0.1035   0.3613   0.0299  -0.1327  -0.0769   6.00    1.8
 11:10:25.000   24.492776956  118.177172029    65.5889   2   8   0.1223   0.1021   0.3548   0.0305  -0.1307  -0.0766   7.00    1.8
 11:10:26.000   24.492777174  118.177172334    65.5113   2   8   0.1208   0.1010   0.3490   0.0325  -0.1290  -0.0775   8.00    1.2
 11:10:27.000   24.492777453  118.177173272    64.8694   2   8   0.1187   0.0982   0.3389   0.0318  -0.1242  -0.0759   0.00    1.1
 11:10:28.000   24.492777710  118.177173055    64.8894   2   8   0.1172   0.0969   0.3331   0.0320  -0.1223  -0.0753   0.00    1.1
 11:10:29.000   24.492777912  118.177172903    64.9156   2   7   0.1160   0.0959   0.3291   0.0321  -0.1207  -0.0761   1.00    1.3
 11:10:30.000   24.492778072  118.177172829    64.9405   2   7   0.1148   0.0947   0.3245   0.0318  -0.1185  -0.0765   2.00    1.7
 11:10:31.000   24.492778251  118.177172740    64.9520   2   7   0.1137   0.0936   0.3203   0.0318  -0.1167  -0.0767   3.00    1.4
 11:10:32.000   24.492778856  118.177172358    65.1021   2   7   0.1126   0.0925   0.3151   0.0320  -0.1142  -0.0774   4.00    1.1
 11:10:33.000   24.492779495  118.177172490    65.0816   2   7   0.1130   0.0930   0.3127   0.0365  -0.1155  -0.0820   5.00    1.2
 11:10:34.000   24.492779632  118.177172373    65.1087   2   7   0.1115   0.0918   0.3092   0.0356  -0.1138  -0.0816   6.00    1.0
 11:10:35.000   24.492779689  118.177172331    65.1335   2   7   0.1110   0.0913   0.3066   0.0338  -0.1116  -0.0830   7.00    1.1
 11:10:36.000   24.492779842  118.177172127    65.1109   2   7   0.1091   0.0898   0.3016   0.0339  -0.1103  -0.0808   0.00    1.0
 11:10:37.000   24.492780200  118.177172047    65.0426   2   8   0.1078   0.0888   0.2976   0.0339  -0.1092  -0.0798   1.00    1.1
 11:10:38.000   24.492780334  118.177171961    65.0520   2   7   0.1068   0.0880   0.2945   0.0336  -0.1079  -0.0796   2.00    1.2
 11:10:39.000   24.492780452  118.177171937    65.0420   2   7   0.1062   0.0875   0.2917   0.0344  -0.1071  -0.0799   3.00    2.8
 11:10:40.000   24.492780610  118.177171904    65.0431   2   7   0.1051   0.0866   0.2889   0.0337  -0.1058  -0.0795   4.00    2.4
 11:10:41.000   24.492780690  118.177171822    65.0337   2   7   0.1042   0.0858   0.2862   0.0334  -0.1046  -0.0794   5.00    2.4
 11:10:42.000   24.492780745  118.177171772    65.0395   2   7   0.1034   0.0850   0.2837   0.0332  -0.1036  -0.0793   6.00    2.3
 11:10:43.000   24.492780911  118.177171670    65.0094   2   7   0.1028   0.0844   0.2817   0.0328  -0.1023  -0.0797   7.00    1.2
 11:10:44.000   24.492780982  118.177171534    65.0118   2   7   0.1014   0.0832   0.2775   0.0324  -0.1011  -0.0782   0.00    1.3
 11:10:45.000   24.492781183  118.177171514    64.9899   2   7   0.1008   0.0825   0.2750   0.0322  -0.1001  -0.0782   0.00    1.4
 11:10:46.000   24.492781477  118.177171175    65.1065   2   7   0.1028   0.0823   0.2722   0.0356  -0.0988  -0.0776   1.00    1.3
 11:10:47.000   24.492781581  118.177171163    65.1139   2   7   0.1014   0.0814   0.2698   0.0344  -0.0978  -0.0775   2.00    1.4
 11:10:48.000   24.492781697  118.177171085    65.0895   2   7   0.1005   0.0807   0.2676   0.0339  -0.0969  -0.0773   3.00    1.4
 11:10:49.000   24.492781767  118.177171082    65.0691   2   7   0.1003   0.0800   0.2655   0.0338  -0.0961  -0.0774   4.00    2.2
 11:10:50.000   24.492782577  118.177170666    65.0961   2   8   0.1031   0.0804   0.2628   0.0385  -0.0951  -0.0754   5.00    2.1
 11:10:51.000   24.492782593  118.177170622    65.0979   2   7   0.1011   0.0794   0.2608   0.0365  -0.0943  -0.0756   6.00    1.5
 11:10:52.000   24.492782640  118.177170630    65.0722   2   7   0.0999   0.0787   0.2590   0.0357  -0.0935  -0.0757   7.00    1.3
 11:10:53.000   24.492782813  118.177170522    65.0279   2   7   0.0977   0.0776   0.2555   0.0343  -0.0924  -0.0748   0.00    1.2
 11:10:54.000   24.492782998  118.177170471    65.0099   2   7   0.0967   0.0769   0.2536   0.0337  -0.0916  -0.0746   1.00    1.1
 11:10:55.000   24.492783215  118.177170474    64.9585   2   8   0.0957   0.0763   0.2513   0.0333  -0.0910  -0.0740   2.00    1.1
 11:10:56.000   24.492783393  118.177170496    65.0159   2   8   0.0951   0.0757   0.2488   0.0332  -0.0905  -0.0733   3.00    1.2
 11:10:57.000   24.492783527  118.177170454    64.9850   2   7   0.0944   0.0752   0.2473   0.0329  -0.0898  -0.0734   4.00    1.2
 11:10:58.000   24.492783610  118.177170419    64.9532   2   7   0.0937   0.0748   0.2458   0.0327  -0.0891  -0.0733   5.00    1.2
 11:10:59.000   24.492783930  118.177170605    64.8007   2   7   0.0935   0.0753   0.2452   0.0329  -0.0897  -0.0741   6.00    1.0
 11:11:00.000   24.492783372  118.177171241    64.6217   2   7   0.1159   0.0993   0.2626  -0.0491  -0.0544  -0.1114   7.00    1.0
 11:11:01.000   24.492783512  118.177171138    64.5892   2   7   0.1122   0.0978   0.2536  -0.0479  -0.0641  -0.1012   0.00    1.0
 11:11:02.000   24.492783909  118.177170918    64.5294   2   7   0.1103   0.0964   0.2512  -0.0462  -0.0645  -0.0996   0.00    1.0
 11:11:03.000   24.492784173  118.177170747    64.4861   2   7   0.1093   0.0954   0.2511  -0.0439  -0.0665  -0.0999   1.00    1.0
 11:11:04.000   24.492784395  118.177170606    64.4587   2   7   0.1082   0.0941   0.2487  -0.0426  -0.0661  -0.0988   2.00    1.0
 11:11:05.000   24.492784617  118.177170493    64.4170   2   7   0.1071   0.0929   0.2468  -0.0413  -0.0660  -0.0979   3.00    1.0
 11:11:06.000   24.492784791  118.177170409    64.3951   2   7   0.1063   0.0919   0.2455  -0.0404  -0.0656  -0.0975   4.00    1.0
 11:11:07.000   24.492785023  118.177170268    64.3538   2   7   0.1053   0.0908   0.2437  -0.0390  -0.0659  -0.0964   5.00    2.0
 11:11:08.000   24.492785247  118.177170174    64.3098   2   7   0.1051   0.0898   0.2424  -0.0379  -0.0660  -0.0963   6.00    1.9
 11:11:09.000   24.492785377  118.177170190    64.2764   2   5   0.1064   0.0902   0.2467  -0.0373  -0.0674  -0.1010   7.00    2.0
 11:11:10.000   24.492785361  118.177169605    64.3228   2   5   0.1086   0.1016   0.2522   0.0073  -0.0879  -0.1079   0.00    1.2
 11:11:11.000   24.492808188  118.177166921    59.9201   2   5   0.6926   0.1251   1.2227  -0.2168   0.2723  -0.9111   0.00    1.0
 11:11:12.000   24.492805225  118.177167328    60.4888   2   5   0.5574   0.1170   0.9934  -0.1719   0.2097  -0.7329   1.00    1.0
 11:11:13.000   24.492800585  118.177168017    61.3729   2   8   0.4003   0.1091   0.7265  -0.1149   0.1186  -0.5224   2.00    1.1
 11:11:14.000   24.492799997  118.177168088    61.4692   2   7   0.3481   0.1055   0.6374  -0.0957   0.0873  -0.4526   3.00    1.1
 11:11:15.000   24.492800353  118.177168230    61.3951   2   7   0.3112   0.1041   0.5790  -0.0825   0.0535  -0.4030   4.00    1.0
 11:11:16.000   24.492800455  118.177168471    61.1849   2   7   0.2830   0.1017   0.5313  -0.0734   0.0275  -0.3644   5.00    1.0
 11:11:17.000   24.492800252  118.177168514    61.2169   2   7   0.2632   0.0998   0.4982  -0.0652  -0.0301  -0.3375   6.00    1.1
 11:11:18.000   24.492800124  118.177168454    61.2412   2   7   0.2470   0.0981   0.4710  -0.0588  -0.0448  -0.3157   0.00    1.1
 11:11:19.000   24.492799857  118.177168525    61.2879   2   8   0.2285   0.0964   0.4398  -0.0497  -0.0596  -0.2901   0.00    1.1
 11:11:20.000   24.492799567  118.177168553    61.3371   2   8   0.2141   0.0949   0.4157  -0.0422  -0.0677  -0.2701   1.00    1.1
 11:11:21.000   24.492799404  118.177168551    61.3285   2   6   0.2057   0.0952   0.4001  -0.0353  -0.0701  -0.2567   2.00    1.7
 11:11:22.000   24.492799376  118.177168572    61.3167   2   6   0.1972   0.0938   0.3863  -0.0339  -0.0721  -0.2450   3.00    1.3
 11:11:23.000   24.492799338  118.177168655    61.3001   2   6   0.1900   0.0953   0.3781  -0.0318  -0.0813  -0.2346   4.00    1.0
 11:11:24.000   24.492799259  118.177168637    61.2924   2   6   0.1835   0.0937   0.3676  -0.0293  -0.0796  -0.2255   5.00    1.1
 11:11:25.000   24.492798383  118.177168562    61.3471   2   8   0.1759   0.0940   0.3602  -0.0256  -0.0876  -0.2141   6.00    1.8
 11:11:26.000   24.492798770  118.177168287    61.5752   2   8   0.1696   0.0923   0.3531  -0.0199  -0.0890  -0.2050   7.00    1.0
 11:11:27.000   24.492798872  118.177168142    61.5009   2   7   0.1650   0.0905   0.3458  -0.0158  -0.0877  -0.2000   0.00    1.0
 11:11:28.000   24.492798906  118.177167247    61.7383   2   7   0.1622   0.0943   0.3487   0.0176  -0.0993  -0.1969   0.00    1.0
 11:11:29.000   24.492799346  118.177167001    61.9559   2   7   0.1582   0.0930   0.3450   0.0179  -0.1000  -0.1925   1.00    1.0
 11:11:30.000   24.492799440  118.177166979    61.9316   2   7   0.1558   0.0921   0.3403   0.0155  -0.0983  -0.1893   2.00    1.0
 11:11:31.000   24.492796028  118.177166768    62.6488   2   8   0.1500   0.0915   0.3300   0.0196  -0.0986  -0.1806   3.00    1.0
 11:11:32.000   24.492796109  118.177166685    62.6254   2   8   0.1469   0.0915   0.3263   0.0211  -0.1001  -0.1765   4.00    1.0
 11:11:33.000   24.492796575  118.177166321    62.6331   2   7   0.1448   0.0901   0.3214   0.0239  -0.0987  -0.1734   5.00    1.0
 11:11:34.000   24.492796788  118.177166326    62.5727   2   7   0.1422   0.0893   0.3168   0.0243  -0.0978  -0.1699   6.00    1.0
 11:11:35.000   24.492796901  118.177166315    62.5434   2   7   0.1413   0.0896   0.3145   0.0271  -0.0980  -0.1687   7.00    1.0
 11:11:36.000   24.492797162  118.177166279    62.4645   2   7   0.1383   0.0880   0.3088   0.0255  -0.0962  -0.1646   0.00    1.0
 11:11:37.000   24.492797332  118.177166325    62.4293   2   7   0.1360   0.0870   0.3047   0.0254  -0.0954  -0.1614   1.00    1.2
 11:11:38.000   24.492797368  118.177166326    62.4216   2   8   0.1333   0.0861   0.2998   0.0261  -0.0950  -0.1568   2.00    1.1
 11:11:39.000   24.492797505  118.177166332    62.3993   2   8   0.1307   0.0853   0.2948   0.0269  -0.0946  -0.1530   3.00    1.2
 11:11:40.000   24.492797607  118.177166317    62.3582   2   7   0.1290   0.0846   0.2916   0.0269  -0.0938  -0.1506   4.00    1.3
 11:11:41.000   24.492797754  118.177166366    62.3216   2   7   0.1273   0.0845   0.2900   0.0276  -0.0947  -0.1485   5.00    1.0
 11:11:42.000   24.492797855  118.177166310    62.3046   2   7   0.1257   0.0836   0.2865   0.0274  -0.0934  -0.1461   6.00    1.0
 11:11:43.000   24.492797884  118.177166390    62.2855   2   8   0.1237   0.0829   0.2826   0.0275  -0.0926  -0.1431   7.00    1.1
 11:11:44.000   24.492798014  118.177166267    62.2348   2   8   0.1212   0.0818   0.2772   0.0275  -0.0918  -0.1394   0.00    1.0
 11:11:45.000   24.492797919  118.177165634    62.2337   2   8   0.1196   0.0812   0.2737   0.0292  -0.0918  -0.1369   1.00    1.3
 11:11:46.000   24.492797594  118.177165177    62.3497   2   8   0.1175   0.0806   0.2701   0.0285  -0.0914  -0.1338   2.00    1.1
 11:11:47.000   24.492796924  118.177164171    62.5787   2   7   0.1159   0.0791   0.2664   0.0268  -0.0889  -0.1313   3.00    1.6
 11:11:48.000   24.492796988  118.177164182    62.5605   2   7   0.1147   0.0785   0.2640   0.0267  -0.0881  -0.1296   4.00    1.7
 11:11:49.000   24.492797144  118.177164191    62.5266   2   8   0.1137   0.0779   0.2611   0.0276  -0.0877  -0.1276   5.00    1.5
 11:11:50.000   24.492797188  118.177164211    62.5087   2   8   0.1124   0.0775   0.2585   0.0272  -0.0871  -0.1258   6.00    1.6
 11:11:51.000   24.492797276  118.177164223    62.4774   2   8   0.1110   0.0769   0.2559   0.0276  -0.0868  -0.1237   7.00    1.4
 11:11:52.000   24.492797288  118.177164199    62.4657   2   8   0.1103   0.0776   0.2541   0.0308  -0.0880  -0.1227   8.00    1.0
 11:11:53.000   24.492797366  118.177164229    62.3927   2   8   0.1087   0.0760   0.2498   0.0296  -0.0857  -0.1189   0.00    1.0
 11:11:54.000   24.492797405  118.177164242    62.3778   2   8   0.1072   0.0760   0.2492   0.0304  -0.0870  -0.1175   0.00    1.0
 11:11:55.000   24.492796216  118.177164960    62.5974   2   8   0.1057   0.0755   0.2459   0.0302  -0.0863  -0.1150   1.00    1.0
 11:11:56.000   24.492796331  118.177164922    62.5752   2   7   0.1052   0.0759   0.2443   0.0319  -0.0862  -0.1143   2.00    1.0
 11:11:57.000   24.492796345  118.177164943    62.5608   2   7   0.1042   0.0756   0.2426   0.0309  -0.0851  -0.1130   3.00    1.0
 11:11:58.000   24.492796337  118.177165008    62.5473   2   6   0.1053   0.0757   0.2418   0.0309  -0.0847  -0.1137   4.00    1.0
 11:11:59.000   24.492796305  118.177164966    62.5456   2   6   0.1045   0.0750   0.2403   0.0299  -0.0839  -0.1127   5.00    1.0
 11:12:00.000   24.492796396  118.177165048    62.5069   2   6   0.1046   0.0750   0.2394   0.0311  -0.0839  -0.1125   6.00    1.1
 11:12:01.000   24.492796625  118.177165038    62.4508   2   8   0.1027   0.0739   0.2358   0.0301  -0.0827  -0.1099   0.00    1.0
 11:12:02.000   24.492796666  118.177165032    62.4431   2   8   0.1013   0.0732   0.2335   0.0294  -0.0821  -0.1081   0.00    1.0
 11:12:03.000   24.492797654  118.177164958    62.2966   2   8   0.0999   0.0726   0.2319   0.0292  -0.0819  -0.1059   1.00    1.0
 11:12:04.000   24.492797657  118.177164917    62.2555   2   8   0.0989   0.0721   0.2298   0.0291  -0.0814  -0.1047   2.00    1.0
 11:12:05.000   24.492797670  118.177164952    62.2331   2   8   0.0979   0.0716   0.2278   0.0291  -0.0810  -0.1033   3.00    1.1
 11:12:06.000   24.492797769  118.177164947    62.2031   2   7   0.0971   0.0713   0.2265   0.0288  -0.0804  -0.1024   4.00    1.3
 11:12:07.000   24.492797860  118.177164907    62.1984   2   6   0.0969   0.0710   0.2258   0.0282  -0.0802  -0.1005   5.00    1.3
 11:12:08.000   24.492797991  118.177164840    62.1760   2   6   0.0965   0.0708   0.2248   0.0275  -0.0797  -0.0994   6.00    1.1
 11:12:09.000   24.492798072  118.177164901    62.1571   2   6   0.0970   0.0705   0.2241   0.0271  -0.0796  -0.0973   7.00    1.3
 11:12:10.000   24.492797998  118.177164769    62.1590   2   6   0.0956   0.0696   0.2281   0.0269  -0.0783  -0.0941   0.00    1.1
 11:12:11.000   24.492798071  118.177164836    62.1267   2   6   0.0950   0.0692   0.2258   0.0265  -0.0781  -0.0929   1.00    1.4
 11:12:12.000   24.492798162  118.177164769    62.1471   2   6   0.0948   0.0688   0.2248   0.0262  -0.0778  -0.0910   2.00    1.5
 11:12:13.000   24.492798142  118.177164767    62.1073   2   8   0.0940   0.0685   0.2271   0.0263  -0.0773  -0.0892   3.00    1.4
 11:12:14.000   24.492798210  118.177164740    62.1109   2   7   0.0934   0.0681   0.2248   0.0263  -0.0772  -0.0879   4.00    1.3
 11:12:15.000   24.492798297  118.177164751    62.1065   2   7   0.0929   0.0678   0.2233   0.0260  -0.0771  -0.0866   5.00    1.5
 11:12:16.000   24.492798300  118.177164713    62.0902   2   7   0.0924   0.0675   0.2221   0.0260  -0.0771  -0.0854   6.00    1.6
 11:12:17.000   24.492798228  118.177164749    62.0788   2   7   0.0929   0.0672   0.2219   0.0259  -0.0771  -0.0826   7.00    1.4
 11:12:18.000   24.492798294  118.177164769    62.0610   2   7   0.0911   0.0664   0.2184   0.0256  -0.0761  -0.0825   0.00    1.4
 11:12:19.000   24.492817577  118.177161043    74.2635   2   8   0.5306   0.2685   1.6177   0.3368  -0.5596  -0.4492   0.00    1.2
 11:12:20.000   24.492810944  118.177163411    68.9743   2   8   0.4264   0.2138   1.2202   0.2684  -0.4264  -0.3512   1.00    1.4
 11:12:21.000   24.492808667  118.177164037    67.2949   2   7   0.3730   0.1845   1.0488   0.2292  -0.3588  -0.2683   2.00    1.6
 11:12:22.000   24.492806878  118.177164307    66.2755   2   7   0.3364   0.1657   0.9351   0.2031  -0.3158  -0.2176   3.00    1.5
 11:12:23.000   24.492805287  118.177164201    65.7850   2   6   0.3098   0.1536   0.8687   0.1852  -0.2912  -0.1923   4.00    1.3
 11:12:24.000   24.492803994  118.177164260    65.4084   2   6   0.2888   0.1441   0.8148   0.1711  -0.2716  -0.1732   5.00    1.1
 11:12:25.000   24.492802930  118.177164414    64.7966   2   8   0.2676   0.1356   0.7457   0.1589  -0.2517  -0.1701   6.00    1.1
 11:12:26.000   24.492802270  118.177164487    64.3527   2   8   0.2509   0.1288   0.6919   0.1490  -0.2357  -0.1650   7.00    1.1
 11:12:27.000   24.492801428  118.177164484    64.0716   2   8   0.2368   0.1231   0.6481   0.1406  -0.2225  -0.1595   0.00    1.8
 11:12:28.000   24.492800845  118.177164412    63.8735   2   8   0.2250   0.1181   0.6117   0.1334  -0.2112  -0.1540   1.00    1.9
 11:12:29.000   24.492800956  118.177164335    64.0068   2   8   0.2134   0.1139   0.5717   0.1273  -0.2009  -0.1569   2.00    1.0
 11:12:30.000   24.492800703  118.177164458    63.7957   2   8   0.2038   0.1098   0.5440   0.1209  -0.1913  -0.1472   3.00    1.0
 11:12:31.000   24.492800081  118.177164109    64.1904   2   8   0.1962   0.1067   0.5176   0.1159  -0.1833  -0.1414   4.00    1.0
 11:12:32.000   24.492799724  118.177164101    64.0657   2   8   0.1895   0.1039   0.4989   0.1116  -0.1771  -0.1371   5.00    1.0
 11:12:33.000   24.492799394  118.177164088    63.9595   2   8   0.1836   0.1019   0.4822   0.1082  -0.1720  -0.1336   6.00    1.1
 11:12:34.000   24.492796902  118.177162411    64.3997   2   8   0.1762   0.0992   0.4643   0.1027  -0.1651  -0.1246   7.00    1.0
 11:12:35.000   24.492793955  118.177160277    64.9913   2   8   0.1695   0.0953   0.4472   0.0973  -0.1572  -0.1159   8.00    1.0
 11:12:36.000   24.492793804  118.177160257    64.8826   2   7   0.1650   0.0931   0.4367   0.0944  -0.1536  -0.1141   0.00    1.0
 11:12:37.000   24.492788887  118.177158264    64.9134   2   8   0.1592   0.0911   0.4249   0.0909  -0.1496  -0.1115   0.00    1.0
 11:12:38.000   24.492790331  118.177158571    65.0997   2   8   0.1545   0.0895   0.4125   0.0885  -0.1462  -0.1119   1.00    1.0
 11:12:39.000   24.492790352  118.177158778    65.0321   2   7   0.1513   0.0882   0.4043   0.0865  -0.1433  -0.1109   2.00    1.0
 11:12:40.000   24.492790368  118.177158910    64.9803   2   7   0.1486   0.0873   0.3967   0.0850  -0.1409  -0.1101   3.00    1.0
 11:12:41.000   24.492793571  118.177148852    67.7617   2   6   0.2002   0.3845   1.1200  -0.2124  -0.6422   0.3653   4.00    1.0
 11:12:42.000   24.492795137  118.177142712    69.4413   2   6   0.1760   0.2901   0.8441  -0.1504  -0.4766   0.2585   5.00    1.0
 11:12:43.000   24.492791555  118.177148405    67.8776   2   8   0.1649   0.2524   0.7359  -0.1237  -0.4104   0.2137   6.00    1.0
 11:12:44.000   24.492790178  118.177152403    66.7674   2   7   0.1567   0.2252   0.6607  -0.1032  -0.3637   0.1806   0.00    1.0
 11:12:45.000   24.492789587  118.177154604    66.1371   2   7   0.1515   0.2071   0.6084  -0.0897  -0.3314   0.1576   1.00    1.3
 11:12:46.000   24.492789090  118.177156187    65.7299   2   7   0.1475   0.1933   0.5681  -0.0784  -0.3065   0.1389   2.00    1.0
 11:12:47.000   24.492788843  118.177157366    65.3980   2   7   0.1438   0.1820   0.5356  -0.0698  -0.2862   0.1236   3.00    1.2
 11:12:48.000   24.492788888  118.177157406    65.4692   2   7   0.1413   0.1702   0.5008  -0.0582  -0.2641   0.1064   4.00    1.0
 11:12:49.000   24.492788721  118.177158154    65.2550   2   8   0.1378   0.1625   0.4792  -0.0525  -0.2506   0.0957   5.00    1.0
 11:12:50.000   24.492789411  118.177158119    65.3508   2   8   0.1350   0.1547   0.4555  -0.0421  -0.2362   0.0795   6.00    1.0
 11:12:51.000   24.492789310  118.177158719    65.1700   2   8   0.1325   0.1493   0.4398  -0.0373  -0.2263   0.0703   7.00    1.0
 11:12:52.000   24.492789229  118.177159264    65.0075   2   8   0.1302   0.1443   0.4258  -0.0323  -0.2176   0.0624   8.00    1.0
 11:12:53.000   24.492789154  118.177159703    64.8007   2   8   0.1274   0.1396   0.4124  -0.0282  -0.2097   0.0555   0.00    1.0
 11:12:54.000   24.492789093  118.177160109    64.6914   2   8   0.1254   0.1356   0.4010  -0.0238  -0.2026   0.0486   0.00    1.2
 11:12:55.000   24.492788139  118.177161536    64.2849   2   8   0.1229   0.1312   0.3886  -0.0144  -0.1947   0.0358   1.00    1.3
 11:12:56.000   24.492787259  118.177165739    63.3670   2   7   0.1213   0.1267   0.3784   0.0075  -0.1873   0.0187   2.00    1.0
 11:12:57.000   24.492787205  118.177165921    63.3723   2   7   0.1198   0.1237   0.3699   0.0126  -0.1819  -0.0087   3.00    1.0
 11:12:58.000   24.492787198  118.177165983    63.3913   2   7   0.1184   0.1210   0.3623   0.0158  -0.1770  -0.0214   4.00    1.0
 11:12:59.000   24.492787196  118.177166089    63.3862   2   7   0.1171   0.1185   0.3562   0.0181  -0.1726  -0.0284   5.00    1.2
 11:13:00.000   24.492787147  118.177166195    63.3909   2   7   0.1160   0.1162   0.3500   0.0193  -0.1682  -0.0349   6.00    1.5
 11:13:01.000   24.492787058  118.177166226    63.3782   2   7   0.1143   0.1138   0.3435   0.0204  -0.1644  -0.0353   0.00    1.4
 11:13:02.000   24.492786949  118.177166235    63.4245   2   7   0.1131   0.1117   0.3374   0.0216  -0.1607  -0.0384   1.00    1.2
 11:13:03.000   24.492787388  118.177165191    63.8069   2   7   0.1132   0.1097   0.3303   0.0267  -0.1564  -0.0430   2.00    2.6
 11:13:04.000   24.492786811  118.177163305    64.0690   1   7   0.0091   0.0065   0.0213   0.0033  -0.0059  -0.0087   3.00    3.6
 11:13:05.000   24.492787493  118.177164572    64.1217   2   7   0.1104   0.1060   0.3204   0.0274  -0.1502  -0.0490   4.00    2.7
 11:13:06.000   24.492787334  118.177166215    63.6068   2   7   0.1094   0.1036   0.3146   0.0273  -0.1447  -0.0521   5.00    1.0
 11:13:07.000   24.492785710  118.177164375    63.7186   2   7   0.1105   0.1029   0.3131   0.0306  -0.1431  -0.0617   6.00    1.0
 11:13:08.000   24.492785660  118.177164558    63.7258   2   7   0.1089   0.1013   0.3090   0.0297  -0.1404  -0.0612   7.00    1.0
 11:13:09.000   24.492785601  118.177164656    63.7597   2   7   0.1078   0.0999   0.3053   0.0296  -0.1380  -0.0616   8.00    1.0
 11:13:10.000   24.492785552  118.177164758    63.6830   2   6   0.1070   0.0983   0.3011   0.0287  -0.1357  -0.0576   0.00    2.2
 11:13:11.000   24.492785403  118.177164828    63.7124   2   6   0.1062   0.0971   0.2983   0.0282  -0.1340  -0.0566   0.00    2.4
 11:13:12.000   24.492785421  118.177165002    63.7046   2   6   0.1055   0.0959   0.2958   0.0278  -0.1323  -0.0557   1.00    2.2
 11:13:13.000   24.492785415  118.177165088    63.6982   2   8   0.1044   0.0947   0.2921   0.0280  -0.1303  -0.0556   2.00    1.0
 11:13:14.000   24.492785421  118.177165273    63.7033   2   8   0.1042   0.0936   0.2886   0.0275  -0.1283  -0.0564   3.00    1.0
 11:13:15.000   24.492785402  118.177165349    63.7335   2   8   0.1032   0.0926   0.2853   0.0277  -0.1265  -0.0567   4.00    2.6
 11:13:16.000   24.492785443  118.177165416    63.7335   2   8   0.1025   0.0916   0.2825   0.0276  -0.1247  -0.0575   5.00    2.5
 11:13:17.000   24.492785457  118.177165490    63.7302   2   8   0.1017   0.0912   0.2806   0.0286  -0.1242  -0.0581   6.00    2.3
 11:13:18.000   24.492785448  118.177165407    63.7410   2   8   0.1004   0.0896   0.2762   0.0280  -0.1219  -0.0568   0.00    1.7
 11:13:19.000   24.492785518  118.177165528    63.7421   2   8   0.0995   0.0885   0.2730   0.0281  -0.1202  -0.0565   0.00    1.5
 11:13:20.000   24.492785414  118.177165947    63.6968   2   7   0.0990   0.0872   0.2714   0.0277  -0.1184  -0.0557   1.00    1.2
 11:13:21.000   24.492785375  118.177165923    63.7094   2   7   0.0983   0.0864   0.2708   0.0275  -0.1174  -0.0541   2.00    1.1
 11:13:22.000   24.492785370  118.177166023    63.7245   2   6   0.0977   0.0856   0.2689   0.0271  -0.1163  -0.0535   3.00    1.0
 11:13:23.000   24.492785364  118.177166114    63.7306   2   6   0.0972   0.0849   0.2672   0.0268  -0.1152  -0.0527   4.00    1.0
 11:13:24.000   24.492785204  118.177166213    63.7690   2   6   0.0970   0.0843   0.2663   0.0259  -0.1137  -0.0530   5.00    1.4
 11:13:25.000   24.492786323  118.177168619    63.2559   2   8   0.1001   0.0926   0.2824   0.0399  -0.1263  -0.0598   6.00    1.0
 11:13:26.000   24.492786391  118.177168450    63.2352   2   8   0.1044   0.0905   0.2737   0.0435  -0.1210  -0.0628   7.00    1.0
 11:13:27.000   24.492786006  118.177168877    63.1921   2   8   0.1019   0.0883   0.2653   0.0438  -0.1170  -0.0643   0.00    1.0
 11:13:28.000   24.492785985  118.177168778    63.2389   2   8   0.1008   0.0871   0.2614   0.0434  -0.1149  -0.0639   0.00    1.0
 11:13:29.000   24.492787378  118.177169814    63.2786   2   7   0.1008   0.0868   0.2618   0.0441  -0.1149  -0.0650   1.00    1.0
 11:13:30.000   24.492787432  118.177169699    63.3118   2   7   0.1004   0.0859   0.2598   0.0435  -0.1132  -0.0625   2.00    1.0
 11:13:31.000   24.492787320  118.177169779    63.3660   2   7   0.0998   0.0851   0.2577   0.0429  -0.1118  -0.0629   3.00    1.0
 11:13:32.000   24.492787369  118.177169713    63.3835   2   8   0.0990   0.0843   0.2553   0.0426  -0.1106  -0.0623   4.00    1.0
 11:13:33.000   24.492787368  118.177169697    63.4021   2   8   0.0982   0.0835   0.2544   0.0422  -0.1095  -0.0622   5.00    1.2
 11:13:34.000   24.492787344  118.177169695    63.4181   2   8   0.0974   0.0828   0.2520   0.0419  -0.1084  -0.0617   6.00    1.3
 11:13:35.000   24.492789306  118.177173076    62.7049   2   8   0.1006   0.0890   0.2600   0.0515  -0.1183  -0.0755   7.00    1.1
 11:13:36.000   24.492788954  118.177172704    62.7349   2   7   0.0971   0.0836   0.2535   0.0439  -0.1113  -0.0644   0.00    1.8
 11:13:37.000   24.492788880  118.177172602    62.8176   2   7   0.0961   0.0822   0.2515   0.0426  -0.1094  -0.0635   1.00    1.5
 11:13:38.000   24.492788753  118.177172391    62.9124   2   8   0.1002   0.0820   0.2510   0.0393  -0.1068  -0.0702   2.00    1.0
 11:13:39.000   24.492791905  118.177173663    62.7482   2   7   0.0975   0.0820   0.2485   0.0400  -0.1057  -0.0673   3.00    1.0
 11:13:40.000   24.492791613  118.177173611    62.8336   2   7   0.0965   0.0814   0.2471   0.0390  -0.1040  -0.0672   4.00    1.0
 11:13:41.000   24.492791536  118.177173496    62.8611   2   7   0.0960   0.0815   0.2473   0.0402  -0.1049  -0.0686   5.00    1.7
 11:13:42.000   24.492791434  118.177173401    62.9384   2   7   0.0953   0.0805   0.2450   0.0399  -0.1035  -0.0681   6.00    1.6
 11:13:43.000   24.492791202  118.177173273    62.9976   2   7   0.0950   0.0800   0.2466   0.0391  -0.1022  -0.0681   7.00    1.0
 11:13:44.000   24.492791205  118.177173139    62.9897   2   8   0.0931   0.0785   0.2414   0.0394  -0.1010  -0.0672   0.00    1.0
 11:13:45.000   24.492790809  118.177173363    62.9366   2   8   0.0923   0.0778   0.2402   0.0392  -0.1002  -0.0675   0.00    1.2
 11:13:46.000   24.492790668  118.177173273    63.0219   2   8   0.0916   0.0771   0.2381   0.0388  -0.0994  -0.0673   1.00    1.4
 11:13:47.000   24.492790577  118.177173239    63.0380   2   8   0.0912   0.0769   0.2360   0.0392  -0.0986  -0.0677   2.00    1.1
 11:13:48.000   24.492790515  118.177173171    63.0785   2   8   0.0904   0.0762   0.2345   0.0386  -0.0979  -0.0680   3.00    1.0
 11:13:49.000   24.492790447  118.177173149    63.1413   2   8   0.0898   0.0756   0.2326   0.0381  -0.0970  -0.0677   4.00    1.0
 11:13:50.000   24.492790588  118.177173331    63.1863   2   8   0.0900   0.0752   0.2327   0.0382  -0.0966  -0.0698   5.00    1.0
 11:13:51.000   24.492790439  118.177173227    63.2605   2   8   0.0892   0.0746   0.2309   0.0375  -0.0957  -0.0691   6.00    1.0
 11:13:52.000   24.492790253  118.177172946    63.3174   2   8   0.0889   0.0753   0.2317   0.0383  -0.0970  -0.0703   7.00    1.0
 11:13:53.000   24.492790220  118.177172743    63.3612   2   8   0.0876   0.0738   0.2275   0.0371  -0.0948  -0.0682   0.00    1.0
 11:13:54.000   24.492790153  118.177172688    63.4198   2   6   0.0870   0.0739   0.2269   0.0367  -0.0950  -0.0682   1.00    1.0
 11:13:55.000   24.492790163  118.177172824    63.4542   2   6   0.0874   0.0760   0.2291   0.0394  -0.0983  -0.0716   2.00    1.0
 11:13:56.000   24.492790101  118.177172734    63.5224   2   7   0.0865   0.0745   0.2263   0.0377  -0.0959  -0.0700   3.00    1.3
 11:13:57.000   24.492790115  118.177172673    63.5650   2   7   0.0867   0.0734   0.2289   0.0369  -0.0943  -0.0732   4.00    1.4
 11:13:58.000   24.492790071  118.177172519    63.6315   2   6   0.0864   0.0731   0.2279   0.0361  -0.0945  -0.0716   5.00    1.4
 11:13:59.000   24.492793597  118.177161797    66.9774   2   5   0.3583   0.9718   2.9234  -0.5794  -1.6832   1.0042   6.00    1.0
 11:14:00.000   24.492794772  118.177157850    68.1646   2   5   0.2759   0.7379   2.2205  -0.4373  -1.2770   0.7576   7.00    1.0
 11:14:01.000   24.492797412  118.177148533    71.0898   2   7   0.2292   0.5720   1.7305  -0.3446  -0.9912   0.5987   0.00    1.0
 11:14:02.000   24.492795340  118.177154178    69.3742   2   8   0.1758   0.4226   1.2767  -0.2500  -0.7296   0.4334   1.00    1.1
 11:14:03.000   24.492796103  118.177151661    70.1626   2   7   0.1632   0.3866   1.1678  -0.2271  -0.6664   0.3934   2.00    1.0
 11:14:04.000   24.492796041  118.177151776    70.1514   2   7   0.1539   0.3597   1.0869  -0.2098  -0.6195   0.3633   3.00    1.0
 11:14:05.000   24.492796054  118.177151924    70.1150   2   7   0.1464   0.3380   1.0218  -0.1956  -0.5815   0.3386   4.00    1.0
 11:14:06.000   24.492795846  118.177152086    70.1003   2   7   0.1401   0.3194   0.9666  -0.1835  -0.5491   0.3177   5.00    1.0
 11:14:07.000   24.492794986  118.177154983    69.2182   2   8   0.1277   0.2746   0.8328  -0.1561  -0.4707   0.2701   6.00    1.0
 11:14:08.000   24.492794506  118.177156687    68.6872   2   7   0.1219   0.2470   0.7504  -0.1400  -0.4222   0.2423   7.00    1.2
 11:14:09.000   24.492794229  118.177157666    68.3933   2   7   0.1186   0.2265   0.6893  -0.1279  -0.3859   0.2201   8.00    1.0
 11:14:10.000   24.492795452  118.177139521    70.2453   2   6   0.1204   0.6260   0.6693   0.0710  -0.4124   0.2072   0.00    1.0
 11:14:11.000   24.492795820  118.177145838    70.2424   2   6   0.1171   0.4655   0.6530  -0.0535  -0.3780   0.2043   0.00    1.1
 11:14:12.000   24.492796020  118.177148026    70.2741   2   6   0.1173   0.3951   0.6430  -0.0681  -0.3638   0.1962   1.00    1.1
 11:14:13.000   24.492793662  118.177148805    69.5814   2   8   0.1140   0.3212   0.5951  -0.0694  -0.3149   0.1828   2.00    1.0
 11:14:14.000   24.492793589  118.177150608    69.0998   2   8   0.1115   0.2812   0.5638  -0.0653  -0.2876   0.1718   3.00    1.0
 11:14:15.000   24.492793765  118.177151329    69.1306   2   5   0.1108   0.2754   0.5597  -0.0695  -0.2926   0.1693   4.00    1.0
 11:14:16.000   24.492793916  118.177152195    69.1513   2   5   0.1099   0.2696   0.5537  -0.0719  -0.2944   0.1665   5.00    1.1
 11:14:17.000   24.492793952  118.177153044    69.1753   2   5   0.1148   0.2745   0.5851  -0.0898  -0.3200   0.1849   6.00    1.1
 11:14:19.000   24.492794410  118.177153064    69.5102   2   6   0.1134   0.6248   0.5633   0.0964  -0.3704   0.1638   0.00    1.4
 11:14:20.000   24.492794485  118.177153899    69.6179   2   6   0.1100   0.4562   0.5489   0.0363  -0.3297   0.1618   1.00    1.3
 11:14:21.000   24.492795308  118.177151407    70.1937   1   6   0.0104   0.0123   0.0359   0.0024  -0.0194  -0.0010   2.00    3.9
 11:14:22.000   24.492795349  118.177151440    70.1680   1   6   0.0110   0.0132   0.0381   0.0029  -0.0208  -0.0024   3.00    3.6
 11:14:23.000   24.492795340  118.177151529    70.1574   1   6   0.0118   0.0144   0.0409   0.0036  -0.0224  -0.0039   4.00    4.1
 11:14:24.000   24.492795418  118.177151344    70.1628   1   5   0.0130   0.0238   0.0526  -0.0056  -0.0332   0.0072   5.00    4.4
 11:14:25.000   24.492795033  118.177153457    70.0741   2   6   0.1064   0.2915   0.5181  -0.0632  -0.2991   0.1482   6.00    2.9
 11:14:26.000   24.492795011  118.177154216    70.0853   2   5   0.1056   0.2840   0.5146  -0.0653  -0.2991   0.1463   7.00    2.3
 11:14:27.000   24.492795153  118.177154257    70.1996   2   5   0.1116   0.2861   0.5457  -0.0862  -0.3207   0.1698   0.00    1.4
 11:14:31.000   24.492849420  118.177021909   118.7260   2   5   1.0921   3.4863   9.2618  -1.9210  -5.6288   3.1728   3.00    1.2
